{
"站名":"大白兔",
"直接播放":"1",
"链接前缀":"https://a.ririhair.com/urcccg.dbtav9.today",
"分类url":"https://a.ririhair.com/urcccg.dbtav9.today/vodtype/{cateId}-{catePg}.html",
"分类":"国产精品$20#主播大秀$21#唯美视频$22#口交视频$23#日本有碼$24#日本無碼$25#动漫视频$26#欧美视频$27#日韩视频$28#欧美视频$29#动漫视频$30#伦理影片$31"
}