{
"站名":"爱上",
"主页url":"https://likeav6.cc",
"直接播放":"1",
"链接":"href=\"&&\"",
"简介":"\"url\":\"http&&.m3u8",
"搜索模式":"1",
"搜索url":"/vodsearch/{wd}----------{pg}---.html",
"搜索链接":"href=\"&&\"",
"免嗅":"1",
"分类":"推荐$1#日韩$2#国产$20#动漫$4#伦理$27#欧美$25",
"分类url":"https://likeav6.cc/vodtype/{cateId}-{catePg}.html"
}