[
{"name": "水果", "url": "http://127.0.0.1:9978/file/TVBox/TV/sg.txt"},
{"name": "黄仓库", "url": "http://127.0.0.1:9978/file/TVBox/TV/hsck.txt"},
{"name": "国产", "url": "http://127.0.0.1:9978/file/TVBox/TV/hck.txt"},
{"name": "名优", "url": "http://127.0.0.1:9978/file/TVBox/TV/you.txt"}
]
