﻿{
"class":[{"type_id":"","type_name":"麻豆"}],

"list":[
{"vod_name":"吴梦梦","vod_pic":"https://upload.xchina.biz/model/5ff0cb8a616f1.webp","vod_remarks":""},
{"vod_name":"NANA","vod_pic":"https://www.kdacgcyba.com/wp-content/uploads/2022/12/09035642528.jpg","vod_remarks":""},
{"vod_name":"米菲兔","vod_pic":"https://666529.xyz/images/2023/09/07/f16368c4c7f314aa6140111442809ca3.jpg","vod_remarks":""},
{"vod_name":"桥本香菜","vod_pic":"https://www.kdacgcyba.com/wp-content/uploads/2023/08/17055402771.jpg","vod_remarks":""},
{"vod_name":"柚子猫","vod_pic":"https://666529.xyz/images/2024/05/13/c7132bc237a0d08d0042e047acabaef7.jpg","vod_remarks":""},
{"vod_name":"苏畅","vod_pic":"https://666529.xyz/images/2023/08/19/931fa7ae1c86efa464c1c2d253a4a67b.jpg","vod_remarks":""},
{"vod_name":"夏晴子","vod_pic":"https://666529.xyz/images/2023/08/08/4e02be04bdcd4448edc299d4c233906e.jpg","vod_remarks":",风骚"},
{"vod_name":"夏雨荷","vod_pic":"https://666529.xyz/images/2023/06/23/12603c07ce64817b2b11465d34abf0db.jpg","vod_remarks":""},
{"vod_name":"梁佳芯","vod_pic":"https://666529.xyz/images/2023/03/25/1e380744c47054480852b09166c332bc.jpg","vod_remarks":",气质少妇"},
{"vod_name":"陈可心","vod_pic":"https://666529.xyz/images/2024/02/12/c8ca954830ca0bade1a39c40e8f00d48.jpg","vod_remarks":",古装欲女"},
{"vod_name":"林妙可","vod_pic":"https://666529.xyz/images/2021/11/07/88f2896d407f0826fb637d8862d55930.jpg","vod_remarks":""},
{"vod_name":"戚小怜","vod_pic":"https://666529.xyz/images/2021/07/22/cab0e30a30720e3b269d295397909304.jpg","vod_remarks":""},
{"vod_name":"不见星空","vod_pic":"https://fivetiu.com/fsog057/cover-t.jpg","vod_remarks":""},
{"vod_name":"许木学长","vod_pic":"https://fivetiu.com/cus-1075/cover-t.jpg","vod_remarks":""},
{"vod_name":"林思妤","vod_pic":"https://fivetiu.com/pme113/cover-t.jpg","vod_remarks":"国风"},
{"vod_name":"宁洋子","vod_pic":"https://fivetiu.com/md0066/cover-t.jpg","vod_remarks":""},
{"vod_name":"cola醬","vod_pic":"https://fivetiu.com/qdog015/cover-t.jpg","vod_remarks":"鲍粉汁多"},
{"vod_name":"糖糖","vod_pic":"https://fivetiu.com/cus-1375/cover-t.jpg","vod_remarks":"美少女"},

{"vod_name":"小桃","vod_pic":"https://666529.xyz/images/2023/12/10/6af6f99a6461e7d4ff0ef6e5fc1c944e.jpg","vod_remarks":""},
{"vod_name":"沈娜娜","vod_pic":"https://666529.xyz/images/2023/04/11/cd09a7d9a90675a1a5dcc06cabae6d1b.jpg","vod_remarks":",白皙美肤"},
{"vod_name":"何雨","vod_pic":"https://666529.xyz/images/2021/05/20/073c279e0740b43eba5471875d962885.jpg","vod_remarks":""},
{"vod_name":"张芸熙","vod_pic":"https://666529.xyz/images/2022/10/05/3ac218f53e984ba1923475ee5a43bf0c.jpg","vod_remarks":",巨乳娇娘"},
{"vod_name":"赵一曼","vod_pic":"https://666529.xyz/images/2022/11/08/5cac6a1cb22bb31fc4c8f6bdc7242121.jpg","vod_remarks":",艳丽女神"},
{"vod_name":"郭童童","vod_pic":"https://666529.xyz/images/2022/03/16/678cda9f452dafa6a026001a1e9c555e.jpg","vod_remarks":",妖娆淫娃"},
{"vod_name":"唐霏","vod_pic":"https://666529.xyz/images/2022/07/05/99d2e67d798a7b002091067e1cd4a9e6.jpg","vod_remarks":",娇羞学妹"},
{"vod_name":"宋南伊","vod_pic":"https://666529.xyz/images/2024/03/31/4bb0aad50ca179e0b4bdc1e3f8e1f57d.jpg","vod_remarks":""},
{"vod_name":"白若冰","vod_pic":"https://666529.xyz/images/2021/10/29/3c1245a8fb885cca8d6595789710520e.jpg","vod_remarks":",风骚少妇"},
{"vod_name":"宋甜甜","vod_pic":"https://666529.xyz/images/2021/11/25/fdf587c7d8ce0f45758c130b73e23d9d.jpg","vod_remarks":",娇柔女神"},
{"vod_name":"雪千夏","vod_pic":"https://666529.xyz/images/2023/07/07/f914b047348cf8cd909a80beaffe7840.jpg","vod_remarks":",极品御姐"},
{"vod_name":"倪哇哇","vod_pic":"https://666529.xyz/images/2022/09/05/0960bbfeeb3c662985cca06bd09352c4.jpg","vod_remarks":",风情玉女"},
{"vod_name":"苏语棠","vod_pic":"https://666529.xyz/images/2023/09/23/cc3013814d1577b8a993db020a22e900.jpg","vod_remarks":",欲望人妻"},
{"vod_name":"蜜苏","vod_pic":"https://666529.xyz/images/2022/09/15/a93102e8bd325fd4c030bc0a311bbdcf.jpg","vod_remarks":",情欲熟女"},
{"vod_name":"季妍希","vod_pic":"https://666529.xyz/images/2024/01/24/f9d12c254c51ae8db71404e76ab0656a.jpg","vod_remarks":",骚情秘书"},
{"vod_name":"欧妮","vod_pic":"https://666529.xyz/images/2021/12/07/715aa3338e941d35d2779b85612106bf.jpg","vod_remarks":",妩媚女神"},
{"vod_name":"艾秋","vod_pic":"https://666529.xyz/images/2023/03/22/c37a08c9845e67a2673756ad766308eb.jpg","vod_remarks":",热辣女神"},
{"vod_name":"秦可欣","vod_pic":"https://666529.xyz/images/2023/09/27/04e5d68170fa43778ae1e88fff46e8b0.jpg","vod_remarks":",百变欲姐"},
{"vod_name":"璇元","vod_pic":"https://666529.xyz/images/2022/01/17/aa4d9ddbb72ee66e0418f7001d130ea0.jpg","vod_remarks":",美腿御姐"},
{"vod_name":"尤奈","vod_pic":"https://666529.xyz/images/2023/11/25/7003af2002e98d76a421d1d182a63e65.jpg","vod_remarks":",露露"},
{"vod_name":"艾熙","vod_pic":"https://666529.xyz/images/2023/05/14/df85897642dcd88e5bca75f8df357151.jpg","vod_remarks":""},
{"vod_name":"艾鲤","vod_pic":"https://666529.xyz/images/2023/09/29/820a103283374dd112e54bc0346d4077.jpg","vod_remarks":""},
{"vod_name":"艾悠","vod_pic":"https://666529.xyz/images/2024/03/15/3c0a3727f30ec6a8f543443ef465f4d1.jpg","vod_remarks":""},
{"vod_name":"何苗","vod_pic":"https://666529.xyz/images/2021/08/02/ae82ecc9efa8a86c2c42729a58abf403.jpg","vod_remarks":""},
{"vod_name":"米欧","vod_pic":"https://666529.xyz/images/2022/11/18/94490bd1f665867af090c8fd6bca12c8.jpg","vod_remarks":""},
{"vod_name":"沙美辰","vod_pic":"https://666529.xyz/images/2021/11/15/9180dd4e9fe30b20b43d86cb5c074fb5.jpg","vod_remarks":""},
{"vod_name":"师师","vod_pic":"https://666529.xyz/images/2023/10/20/63c8bdba0d44435d0f9b29b97af8a8c6.jpg","vod_remarks":""},
{"vod_name":"雯茜","vod_pic":"https://666529.xyz/images/2023/07/16/ad8a25307c20db681b685bd0d7b73897.jpg","vod_remarks":""},

{"vod_name":"","vod_pic":"","vod_remarks":""}
]
}

